{
  "openapi": "3.0.0",
  "info": {
    "title": "Facento Core API",
    "description": "Facento Core API v0.0.1",
    "version": "1.0.0"
  },
  "servers": [
    {
      "url": "http://localhost:8086/api/v1"
    },
    {
      "url": "https://localhost:8086/api/v1"
    }
  ],
  "paths": {
    "/authenticate/login": {
      "post": {
        "description": "",
        "parameters": [],
        "responses": {
          "200": {
            "description": "OK"
          },
          "401": {
            "description": "Unauthorized"
          },
          "404": {
            "description": "Not Found"
          }
        },
        "requestBody": {
          "content": {
            "application/json": {
              "schema": {
                "type": "object",
                "properties": {
                  "username": {
                    "example": "any"
                  },
                  "password": {
                    "example": "any"
                  }
                }
              }
            }
          }
        }
      }
    },
    "/authenticate/userlogin/{somevalue}/{othervalue}": {
      "post": {
        "tags": [
          "Users"
        ],
        "summary": "This is a user login API",
        "description": "",
        "parameters": [
          {
            "name": "somevalue",
            "in": "path",
            "required": true,
            "schema": {
              "type": "string"
            },
            "description": "adding new user."
          },
          {
            "name": "othervalue",
            "in": "path",
            "required": true,
            "schema": {
              "type": "string"
            },
            "description": "adding new number."
          }
        ],
        "responses": {
          "200": {
            "description": "OK"
          },
          "401": {
            "description": "Unauthorized"
          },
          "404": {
            "description": "Not Found"
          },
          "500": {
            "description": "Internal Server Error"
          }
        },
        "requestBody": {
          "required": true,
          "content": {
            "application/json": {
              "schema": {
                "type": "object",
                "properties": {
                  "username": {
                    "type": "string",
                    "description": "I am coder.",
                    "example": "kiran@facento.com"
                  },
                  "password": {
                    "type": "Number",
                    "example": 1
                  }
                }
              }
            }
          }
        }
      }
    },
    "/user/registeruser": {
      "post": {
        "description": "",
        "parameters": [],
        "responses": {
          "200": {
            "description": "OK"
          },
          "401": {
            "description": "Unauthorized"
          },
          "404": {
            "description": "Not Found"
          },
          "500": {
            "description": "Internal Server Error"
          }
        },
        "requestBody": {
          "content": {
            "application/json": {
              "schema": {
                "type": "object",
                "properties": {
                  "AuthPin": {
                    "example": "any"
                  },
                  "account_type": {
                    "example": "any"
                  },
                  "organization_id": {
                    "example": "any"
                  },
                  "first_name": {
                    "example": "any"
                  },
                  "middle_name": {
                    "example": "any"
                  },
                  "last_name": {
                    "example": "any"
                  },
                  "display_name": {
                    "example": "any"
                  },
                  "email": {
                    "example": "any"
                  },
                  "mobile": {
                    "example": "any"
                  },
                  "description": {
                    "example": "any"
                  },
                  "registration_source": {
                    "example": "any"
                  },
                  "is_system_account": {
                    "example": "any"
                  },
                  "role": {
                    "example": "any"
                  },
                  "country_id": {
                    "example": "any"
                  },
                  "time_zone_id": {
                    "example": "any"
                  },
                  "parent_account_id": {
                    "example": "any"
                  },
                  "is_invite_sent": {
                    "example": "any"
                  },
                  "status": {
                    "example": "any"
                  },
                  "created_by": {
                    "example": "any"
                  },
                  "reporting_id": {
                    "example": "any"
                  },
                  "poster_id": {
                    "example": "any"
                  },
                  "referral_id": {
                    "example": "any"
                  },
                  "account_id": {
                    "example": "any"
                  },
                  "icon_id": {
                    "example": "any"
                  },
                  "password": {
                    "example": "any"
                  },
                  "valid_until": {
                    "example": "any"
                  }
                }
              }
            }
          }
        }
      }
    },
    "/user/updateuser": {
      "put": {
        "description": "",
        "parameters": [],
        "responses": {
          "200": {
            "description": "OK"
          },
          "401": {
            "description": "Unauthorized"
          },
          "404": {
            "description": "Not Found"
          },
          "500": {
            "description": "Internal Server Error"
          }
        },
        "requestBody": {
          "content": {
            "application/json": {
              "schema": {
                "type": "object",
                "properties": {
                  "user_id": {
                    "example": "any"
                  },
                  "account_type": {
                    "example": "any"
                  },
                  "organization_id": {
                    "example": "any"
                  },
                  "first_name": {
                    "example": "any"
                  },
                  "middle_name": {
                    "example": "any"
                  },
                  "last_name": {
                    "example": "any"
                  },
                  "display_name": {
                    "example": "any"
                  },
                  "email": {
                    "example": "any"
                  },
                  "mobile": {
                    "example": "any"
                  },
                  "description": {
                    "example": "any"
                  },
                  "referral_Number": {
                    "example": "any"
                  },
                  "registration_source": {
                    "example": "any"
                  },
                  "is_system_account": {
                    "example": "any"
                  },
                  "role": {
                    "example": "any"
                  },
                  "country_id": {
                    "example": "any"
                  },
                  "time_zone_id": {
                    "example": "any"
                  },
                  "parent_account_id": {
                    "example": "any"
                  },
                  "is_invite_sent": {
                    "example": "any"
                  },
                  "status": {
                    "example": "any"
                  },
                  "updated_by": {
                    "example": "any"
                  },
                  "unhashed_pin": {
                    "example": "any"
                  },
                  "reporting_id": {
                    "example": "any"
                  },
                  "pin": {
                    "example": "any"
                  },
                  "poster_id": {
                    "example": "any"
                  },
                  "referral_id": {
                    "example": "any"
                  },
                  "account_id": {
                    "example": "any"
                  },
                  "icon_id": {
                    "example": "any"
                  },
                  "auth_type": {
                    "example": "any"
                  },
                  "is_change_on_access": {
                    "example": "any"
                  },
                  "is_multi_factor": {
                    "example": "any"
                  },
                  "valid_from": {
                    "example": "any"
                  },
                  "valid_until": {
                    "example": "any"
                  },
                  "is_primary": {
                    "example": "any"
                  }
                }
              }
            }
          }
        }
      }
    },
    "/user/deleteuser": {
      "delete": {
        "description": "",
        "parameters": [],
        "responses": {
          "200": {
            "description": "OK"
          },
          "401": {
            "description": "Unauthorized"
          },
          "404": {
            "description": "Not Found"
          },
          "500": {
            "description": "Internal Server Error"
          }
        },
        "requestBody": {
          "content": {
            "application/json": {
              "schema": {
                "type": "object",
                "properties": {
                  "email": {
                    "example": "any"
                  }
                }
              }
            }
          }
        }
      }
    },
    "/user/getusers/{limit}/{offset}": {
      "get": {
        "description": "",
        "parameters": [
          {
            "name": "limit",
            "in": "path",
            "required": true,
            "schema": {
              "type": "string"
            }
          },
          {
            "name": "offset",
            "in": "path",
            "required": true,
            "schema": {
              "type": "string"
            }
          }
        ],
        "responses": {
          "200": {
            "description": "OK"
          },
          "401": {
            "description": "Unauthorized"
          },
          "404": {
            "description": "Not Found"
          },
          "500": {
            "description": "Internal Server Error"
          }
        }
      }
    },
    "/user/getuser/{user_id}": {
      "get": {
        "description": "",
        "parameters": [
          {
            "name": "user_id",
            "in": "path",
            "required": true,
            "schema": {
              "type": "string"
            }
          }
        ],
        "responses": {
          "200": {
            "description": "OK"
          },
          "401": {
            "description": "Unauthorized"
          },
          "404": {
            "description": "Not Found"
          },
          "500": {
            "description": "Internal Server Error"
          }
        }
      }
    },
    "/organization/registerorganization": {
      "post": {
        "description": "",
        "parameters": [],
        "responses": {
          "200": {
            "description": "OK"
          },
          "401": {
            "description": "Unauthorized"
          },
          "404": {
            "description": "Not Found"
          },
          "500": {
            "description": "Internal Server Error"
          }
        },
        "requestBody": {
          "content": {
            "application/json": {
              "schema": {
                "type": "object",
                "properties": {
                  "name": {
                    "example": "any"
                  },
                  "business_name": {
                    "example": "any"
                  },
                  "business_nick_name": {
                    "example": "any"
                  },
                  "email": {
                    "example": "any"
                  },
                  "mobile_number": {
                    "example": "any"
                  },
                  "description": {
                    "example": "any"
                  },
                  "business_slogan": {
                    "example": "any"
                  },
                  "contact_number": {
                    "example": "any"
                  },
                  "fax": {
                    "example": "any"
                  },
                  "contact_person_id": {
                    "example": "any"
                  },
                  "account_id": {
                    "example": "any"
                  },
                  "time_zone_id": {
                    "example": "any"
                  },
                  "status": {
                    "example": "any"
                  },
                  "owner_id": {
                    "example": "any"
                  },
                  "business_type": {
                    "example": "any"
                  }
                }
              }
            }
          }
        }
      }
    },
    "/organization/updateorganization": {
      "put": {
        "description": "",
        "parameters": [],
        "responses": {
          "200": {
            "description": "OK"
          },
          "401": {
            "description": "Unauthorized"
          },
          "404": {
            "description": "Not Found"
          },
          "500": {
            "description": "Internal Server Error"
          }
        },
        "requestBody": {
          "content": {
            "application/json": {
              "schema": {
                "type": "object",
                "properties": {
                  "organization_id": {
                    "example": "any"
                  },
                  "name": {
                    "example": "any"
                  },
                  "business_name": {
                    "example": "any"
                  },
                  "business_nick_name": {
                    "example": "any"
                  },
                  "email": {
                    "example": "any"
                  },
                  "mobile_number": {
                    "example": "any"
                  },
                  "description": {
                    "example": "any"
                  },
                  "business_slogan": {
                    "example": "any"
                  },
                  "contact_number": {
                    "example": "any"
                  },
                  "fax": {
                    "example": "any"
                  },
                  "contact_person_id": {
                    "example": "any"
                  },
                  "account_id": {
                    "example": "any"
                  },
                  "time_zone_id": {
                    "example": "any"
                  },
                  "status": {
                    "example": "any"
                  },
                  "owner_id": {
                    "example": "any"
                  },
                  "business_type": {
                    "example": "any"
                  }
                }
              }
            }
          }
        }
      }
    },
    "/organization/deleteorganization": {
      "delete": {
        "description": "",
        "parameters": [],
        "responses": {
          "200": {
            "description": "OK"
          },
          "401": {
            "description": "Unauthorized"
          },
          "404": {
            "description": "Not Found"
          },
          "500": {
            "description": "Internal Server Error"
          }
        },
        "requestBody": {
          "content": {
            "application/json": {
              "schema": {
                "type": "object",
                "properties": {
                  "organization_id": {
                    "example": "any"
                  }
                }
              }
            }
          }
        }
      }
    },
    "/organization/getorganization/{organization_id}": {
      "get": {
        "description": "",
        "parameters": [
          {
            "name": "organization_id",
            "in": "path",
            "required": true,
            "schema": {
              "type": "string"
            }
          }
        ],
        "responses": {
          "200": {
            "description": "OK"
          },
          "401": {
            "description": "Unauthorized"
          },
          "404": {
            "description": "Not Found"
          },
          "500": {
            "description": "Internal Server Error"
          }
        }
      }
    },
    "/organization/getorganizations/{limit}/{offset}": {
      "get": {
        "description": "",
        "parameters": [
          {
            "name": "limit",
            "in": "path",
            "required": true,
            "schema": {
              "type": "string"
            }
          },
          {
            "name": "offset",
            "in": "path",
            "required": true,
            "schema": {
              "type": "string"
            }
          }
        ],
        "responses": {
          "200": {
            "description": "OK"
          },
          "401": {
            "description": "Unauthorized"
          },
          "404": {
            "description": "Not Found"
          },
          "500": {
            "description": "Internal Server Error"
          }
        }
      }
    },
    "/location/registerlocation": {
      "post": {
        "description": "",
        "parameters": [],
        "responses": {
          "200": {
            "description": "OK"
          },
          "401": {
            "description": "Unauthorized"
          },
          "404": {
            "description": "Not Found"
          },
          "500": {
            "description": "Internal Server Error"
          }
        },
        "requestBody": {
          "content": {
            "application/json": {
              "schema": {
                "type": "object",
                "properties": {
                  "ascii_name": {
                    "example": "any"
                  },
                  "isd_code": {
                    "example": "any"
                  },
                  "latitude": {
                    "example": "any"
                  },
                  "parent_id": {
                    "example": "any"
                  },
                  "postal_code": {
                    "example": "any"
                  },
                  "status": {
                    "example": "any"
                  },
                  "time_zone_id": {
                    "example": "any"
                  },
                  "type": {
                    "example": "any"
                  },
                  "name": {
                    "example": "any"
                  },
                  "level": {
                    "example": "any"
                  },
                  "iso3": {
                    "example": "any"
                  },
                  "iso2": {
                    "example": "any"
                  },
                  "image": {
                    "example": "any"
                  },
                  "flag_icon": {
                    "example": "any"
                  },
                  "elevation": {
                    "example": "any"
                  }
                }
              }
            }
          }
        }
      }
    },
    "/location/updatelocation": {
      "put": {
        "description": "",
        "parameters": [],
        "responses": {
          "200": {
            "description": "OK"
          },
          "401": {
            "description": "Unauthorized"
          },
          "404": {
            "description": "Not Found"
          },
          "500": {
            "description": "Internal Server Error"
          }
        },
        "requestBody": {
          "content": {
            "application/json": {
              "schema": {
                "type": "object",
                "properties": {
                  "location_id": {
                    "example": "any"
                  },
                  "ascii_name": {
                    "example": "any"
                  },
                  "isd_code": {
                    "example": "any"
                  },
                  "latitude": {
                    "example": "any"
                  },
                  "parent_id": {
                    "example": "any"
                  },
                  "postal_code": {
                    "example": "any"
                  },
                  "status": {
                    "example": "any"
                  },
                  "time_zone_id": {
                    "example": "any"
                  },
                  "type": {
                    "example": "any"
                  },
                  "name": {
                    "example": "any"
                  },
                  "level": {
                    "example": "any"
                  },
                  "iso3": {
                    "example": "any"
                  },
                  "iso2": {
                    "example": "any"
                  },
                  "image": {
                    "example": "any"
                  },
                  "flag_icon": {
                    "example": "any"
                  },
                  "elevation": {
                    "example": "any"
                  },
                  "owner_id": {
                    "example": "any"
                  }
                }
              }
            }
          }
        }
      }
    },
    "/location/deletelocation": {
      "delete": {
        "description": "",
        "parameters": [],
        "responses": {
          "200": {
            "description": "OK"
          },
          "401": {
            "description": "Unauthorized"
          },
          "404": {
            "description": "Not Found"
          },
          "500": {
            "description": "Internal Server Error"
          }
        },
        "requestBody": {
          "content": {
            "application/json": {
              "schema": {
                "type": "object",
                "properties": {
                  "location_id": {
                    "example": "any"
                  }
                }
              }
            }
          }
        }
      }
    },
    "/location/getlocation/{location_id}": {
      "get": {
        "description": "",
        "parameters": [
          {
            "name": "location_id",
            "in": "path",
            "required": true,
            "schema": {
              "type": "string"
            }
          }
        ],
        "responses": {
          "200": {
            "description": "OK"
          },
          "401": {
            "description": "Unauthorized"
          },
          "404": {
            "description": "Not Found"
          },
          "500": {
            "description": "Internal Server Error"
          }
        }
      }
    },
    "/location/getlocations/{limit}/{offset}": {
      "get": {
        "description": "",
        "parameters": [
          {
            "name": "limit",
            "in": "path",
            "required": true,
            "schema": {
              "type": "string"
            }
          },
          {
            "name": "offset",
            "in": "path",
            "required": true,
            "schema": {
              "type": "string"
            }
          }
        ],
        "responses": {
          "200": {
            "description": "OK"
          },
          "401": {
            "description": "Unauthorized"
          },
          "404": {
            "description": "Not Found"
          },
          "500": {
            "description": "Internal Server Error"
          }
        }
      }
    },
    "/currency/registercurrency": {
      "post": {
        "description": "",
        "parameters": [],
        "responses": {
          "200": {
            "description": "OK"
          },
          "401": {
            "description": "Unauthorized"
          },
          "404": {
            "description": "Not Found"
          },
          "500": {
            "description": "Internal Server Error"
          }
        },
        "requestBody": {
          "content": {
            "application/json": {
              "schema": {
                "type": "object",
                "properties": {
                  "name": {
                    "example": "any"
                  },
                  "symbol": {
                    "example": "any"
                  },
                  "format": {
                    "example": "any"
                  },
                  "code": {
                    "example": "any"
                  },
                  "organization_id": {
                    "example": "any"
                  },
                  "precision": {
                    "example": "any"
                  },
                  "created_by": {
                    "example": "any"
                  }
                }
              }
            }
          }
        }
      }
    },
    "/currency/updatecurrency": {
      "put": {
        "description": "",
        "parameters": [],
        "responses": {
          "200": {
            "description": "OK"
          },
          "401": {
            "description": "Unauthorized"
          },
          "404": {
            "description": "Not Found"
          },
          "500": {
            "description": "Internal Server Error"
          }
        },
        "requestBody": {
          "content": {
            "application/json": {
              "schema": {
                "type": "object",
                "properties": {
                  "currency_id": {
                    "example": "any"
                  },
                  "name": {
                    "example": "any"
                  },
                  "symbol": {
                    "example": "any"
                  },
                  "format": {
                    "example": "any"
                  },
                  "code": {
                    "example": "any"
                  },
                  "organization_id": {
                    "example": "any"
                  },
                  "precision": {
                    "example": "any"
                  },
                  "owner_id": {
                    "example": "any"
                  }
                }
              }
            }
          }
        }
      }
    },
    "/currency/deletecurrency": {
      "delete": {
        "description": "",
        "parameters": [],
        "responses": {
          "200": {
            "description": "OK"
          },
          "401": {
            "description": "Unauthorized"
          },
          "404": {
            "description": "Not Found"
          },
          "500": {
            "description": "Internal Server Error"
          }
        },
        "requestBody": {
          "content": {
            "application/json": {
              "schema": {
                "type": "object",
                "properties": {
                  "currency_id": {
                    "example": "any"
                  }
                }
              }
            }
          }
        }
      }
    },
    "/currency/getcurrency/{currency_id}": {
      "get": {
        "description": "",
        "parameters": [
          {
            "name": "currency_id",
            "in": "path",
            "required": true,
            "schema": {
              "type": "string"
            }
          }
        ],
        "responses": {
          "200": {
            "description": "OK"
          },
          "401": {
            "description": "Unauthorized"
          },
          "404": {
            "description": "Not Found"
          },
          "500": {
            "description": "Internal Server Error"
          }
        }
      }
    },
    "/currency/getcurrencies/{limit}/{offset}": {
      "get": {
        "description": "",
        "parameters": [
          {
            "name": "limit",
            "in": "path",
            "required": true,
            "schema": {
              "type": "string"
            }
          },
          {
            "name": "offset",
            "in": "path",
            "required": true,
            "schema": {
              "type": "string"
            }
          }
        ],
        "responses": {
          "200": {
            "description": "OK"
          },
          "401": {
            "description": "Unauthorized"
          },
          "404": {
            "description": "Not Found"
          },
          "500": {
            "description": "Internal Server Error"
          }
        }
      }
    },
    "/timezone/registertimezone": {
      "post": {
        "description": "",
        "parameters": [],
        "responses": {
          "200": {
            "description": "OK"
          },
          "401": {
            "description": "Unauthorized"
          },
          "404": {
            "description": "Not Found"
          },
          "500": {
            "description": "Internal Server Error"
          }
        },
        "requestBody": {
          "content": {
            "application/json": {
              "schema": {
                "type": "object",
                "properties": {
                  "internal_code": {
                    "example": "any"
                  },
                  "offset_dst": {
                    "example": "any"
                  },
                  "offset_std": {
                    "example": "any"
                  },
                  "time_zone": {
                    "example": "any"
                  },
                  "code_std": {
                    "example": "any"
                  },
                  "code_dst": {
                    "example": "any"
                  },
                  "owner_id": {
                    "example": "any"
                  }
                }
              }
            }
          }
        }
      }
    },
    "/timezone/updatetimezone": {
      "put": {
        "description": "",
        "parameters": [],
        "responses": {
          "200": {
            "description": "OK"
          },
          "401": {
            "description": "Unauthorized"
          },
          "404": {
            "description": "Not Found"
          },
          "500": {
            "description": "Internal Server Error"
          }
        },
        "requestBody": {
          "content": {
            "application/json": {
              "schema": {
                "type": "object",
                "properties": {
                  "timezone_id": {
                    "example": "any"
                  },
                  "internal_code": {
                    "example": "any"
                  },
                  "offset_dst": {
                    "example": "any"
                  },
                  "offset_std": {
                    "example": "any"
                  },
                  "time_zone": {
                    "example": "any"
                  },
                  "code_std": {
                    "example": "any"
                  },
                  "code_dst": {
                    "example": "any"
                  },
                  "owner_id": {
                    "example": "any"
                  }
                }
              }
            }
          }
        }
      }
    },
    "/timezone/deletetimezone": {
      "delete": {
        "description": "",
        "parameters": [],
        "responses": {
          "200": {
            "description": "OK"
          },
          "401": {
            "description": "Unauthorized"
          },
          "404": {
            "description": "Not Found"
          },
          "500": {
            "description": "Internal Server Error"
          }
        },
        "requestBody": {
          "content": {
            "application/json": {
              "schema": {
                "type": "object",
                "properties": {
                  "timezone_id": {
                    "example": "any"
                  }
                }
              }
            }
          }
        }
      }
    },
    "/timezone/gettimezone/{timezone_id}": {
      "get": {
        "description": "",
        "parameters": [
          {
            "name": "timezone_id",
            "in": "path",
            "required": true,
            "schema": {
              "type": "string"
            }
          }
        ],
        "responses": {
          "200": {
            "description": "OK"
          },
          "401": {
            "description": "Unauthorized"
          },
          "404": {
            "description": "Not Found"
          },
          "500": {
            "description": "Internal Server Error"
          }
        }
      }
    },
    "/timezone/gettimezones/{limit}/{offset}": {
      "get": {
        "description": "",
        "parameters": [
          {
            "name": "limit",
            "in": "path",
            "required": true,
            "schema": {
              "type": "string"
            }
          },
          {
            "name": "offset",
            "in": "path",
            "required": true,
            "schema": {
              "type": "string"
            }
          }
        ],
        "responses": {
          "200": {
            "description": "OK"
          },
          "401": {
            "description": "Unauthorized"
          },
          "404": {
            "description": "Not Found"
          },
          "500": {
            "description": "Internal Server Error"
          }
        }
      }
    },
    "/address/saveaddress": {
      "post": {
        "description": "",
        "parameters": [],
        "responses": {
          "200": {
            "description": "OK"
          },
          "401": {
            "description": "Unauthorized"
          },
          "404": {
            "description": "Not Found"
          },
          "500": {
            "description": "Internal Server Error"
          }
        },
        "requestBody": {
          "content": {
            "application/json": {
              "schema": {
                "type": "object",
                "properties": {
                  "address_line1": {
                    "example": "any"
                  },
                  "address_line2": {
                    "example": "any"
                  },
                  "address_type": {
                    "example": "any"
                  },
                  "attention": {
                    "example": "any"
                  },
                  "city_id": {
                    "example": "any"
                  },
                  "contact_type": {
                    "example": "any"
                  },
                  "country_id": {
                    "example": "any"
                  },
                  "entity_id": {
                    "example": "any"
                  },
                  "is_primary": {
                    "example": "any"
                  },
                  "landmark": {
                    "example": "any"
                  },
                  "latitude": {
                    "example": "any"
                  },
                  "locality_id": {
                    "example": "any"
                  },
                  "longitude": {
                    "example": "any"
                  },
                  "post_box_number": {
                    "example": "any"
                  },
                  "postal_code": {
                    "example": "any"
                  },
                  "region_id": {
                    "example": "any"
                  },
                  "state_id": {
                    "example": "any"
                  },
                  "status": {
                    "example": "any"
                  },
                  "street_address": {
                    "example": "any"
                  },
                  "owner_id": {
                    "example": "any"
                  }
                }
              }
            }
          }
        }
      }
    },
    "/address/updateaddress": {
      "put": {
        "description": "",
        "parameters": [],
        "responses": {
          "200": {
            "description": "OK"
          },
          "401": {
            "description": "Unauthorized"
          },
          "404": {
            "description": "Not Found"
          },
          "500": {
            "description": "Internal Server Error"
          }
        },
        "requestBody": {
          "content": {
            "application/json": {
              "schema": {
                "type": "object",
                "properties": {
                  "address_id": {
                    "example": "any"
                  },
                  "address_line1": {
                    "example": "any"
                  },
                  "address_line2": {
                    "example": "any"
                  },
                  "address_type": {
                    "example": "any"
                  },
                  "attention": {
                    "example": "any"
                  },
                  "city_id": {
                    "example": "any"
                  },
                  "contact_type": {
                    "example": "any"
                  },
                  "country_id": {
                    "example": "any"
                  },
                  "entity_id": {
                    "example": "any"
                  },
                  "is_primary": {
                    "example": "any"
                  },
                  "landmark": {
                    "example": "any"
                  },
                  "latitude": {
                    "example": "any"
                  },
                  "locality_id": {
                    "example": "any"
                  },
                  "longitude": {
                    "example": "any"
                  },
                  "post_box_number": {
                    "example": "any"
                  },
                  "postal_code": {
                    "example": "any"
                  },
                  "region_id": {
                    "example": "any"
                  },
                  "state_id": {
                    "example": "any"
                  },
                  "status": {
                    "example": "any"
                  },
                  "street_address": {
                    "example": "any"
                  },
                  "owner_id": {
                    "example": "any"
                  }
                }
              }
            }
          }
        }
      }
    },
    "/address/deleteaddress": {
      "delete": {
        "description": "",
        "parameters": [],
        "responses": {
          "200": {
            "description": "OK"
          },
          "401": {
            "description": "Unauthorized"
          },
          "404": {
            "description": "Not Found"
          },
          "500": {
            "description": "Internal Server Error"
          }
        },
        "requestBody": {
          "content": {
            "application/json": {
              "schema": {
                "type": "object",
                "properties": {
                  "address_id": {
                    "example": "any"
                  }
                }
              }
            }
          }
        }
      }
    },
    "/address/getaddress/{address_id}": {
      "get": {
        "description": "",
        "parameters": [
          {
            "name": "address_id",
            "in": "path",
            "required": true,
            "schema": {
              "type": "string"
            }
          }
        ],
        "responses": {
          "200": {
            "description": "OK"
          },
          "401": {
            "description": "Unauthorized"
          },
          "404": {
            "description": "Not Found"
          },
          "500": {
            "description": "Internal Server Error"
          }
        }
      }
    },
    "/address/getaddresses/{limit}/{offset}": {
      "get": {
        "description": "",
        "parameters": [
          {
            "name": "limit",
            "in": "path",
            "required": true,
            "schema": {
              "type": "string"
            }
          },
          {
            "name": "offset",
            "in": "path",
            "required": true,
            "schema": {
              "type": "string"
            }
          }
        ],
        "responses": {
          "200": {
            "description": "OK"
          },
          "401": {
            "description": "Unauthorized"
          },
          "404": {
            "description": "Not Found"
          },
          "500": {
            "description": "Internal Server Error"
          }
        }
      }
    },
    "/contact/registercontactperson": {
      "post": {
        "description": "",
        "parameters": [],
        "responses": {
          "200": {
            "description": "OK"
          },
          "401": {
            "description": "Unauthorized"
          },
          "404": {
            "description": "Not Found"
          },
          "500": {
            "description": "Internal Server Error"
          }
        },
        "requestBody": {
          "content": {
            "application/json": {
              "schema": {
                "type": "object",
                "properties": {
                  "work_location": {
                    "example": "any"
                  },
                  "twitter_url": {
                    "example": "any"
                  },
                  "status": {
                    "example": "any"
                  },
                  "organization_id": {
                    "example": "any"
                  },
                  "mobile": {
                    "example": "any"
                  },
                  "middle_name": {
                    "example": "any"
                  },
                  "logo": {
                    "example": "any"
                  },
                  "first_name": {
                    "example": "any"
                  },
                  "account_type_id": {
                    "example": "any"
                  },
                  "auth_account_id": {
                    "example": "any"
                  },
                  "display_name": {
                    "example": "any"
                  },
                  "email": {
                    "example": "any"
                  },
                  "facebook_url": {
                    "example": "any"
                  },
                  "family_name": {
                    "example": "any"
                  },
                  "image": {
                    "example": "any"
                  },
                  "job_title": {
                    "example": "any"
                  },
                  "owner_id": {
                    "example": "any"
                  }
                }
              }
            }
          }
        }
      }
    },
    "/contact/updatecontactperson": {
      "put": {
        "description": "",
        "parameters": [],
        "responses": {
          "200": {
            "description": "OK"
          },
          "401": {
            "description": "Unauthorized"
          },
          "404": {
            "description": "Not Found"
          },
          "500": {
            "description": "Internal Server Error"
          }
        },
        "requestBody": {
          "content": {
            "application/json": {
              "schema": {
                "type": "object",
                "properties": {
                  "user_id": {
                    "example": "any"
                  },
                  "work_location": {
                    "example": "any"
                  },
                  "twitter_url": {
                    "example": "any"
                  },
                  "status": {
                    "example": "any"
                  },
                  "organization_id": {
                    "example": "any"
                  },
                  "mobile": {
                    "example": "any"
                  },
                  "middle_name": {
                    "example": "any"
                  },
                  "logo": {
                    "example": "any"
                  },
                  "first_name": {
                    "example": "any"
                  },
                  "account_type_id": {
                    "example": "any"
                  },
                  "auth_account_id": {
                    "example": "any"
                  },
                  "display_name": {
                    "example": "any"
                  },
                  "email": {
                    "example": "any"
                  },
                  "facebook_url": {
                    "example": "any"
                  },
                  "family_name": {
                    "example": "any"
                  },
                  "image": {
                    "example": "any"
                  },
                  "job_title": {
                    "example": "any"
                  },
                  "owner_id": {
                    "example": "any"
                  }
                }
              }
            }
          }
        }
      }
    },
    "/contact/deletecontactperson": {
      "delete": {
        "description": "",
        "parameters": [],
        "responses": {
          "200": {
            "description": "OK"
          },
          "401": {
            "description": "Unauthorized"
          },
          "404": {
            "description": "Not Found"
          },
          "500": {
            "description": "Internal Server Error"
          }
        },
        "requestBody": {
          "content": {
            "application/json": {
              "schema": {
                "type": "object",
                "properties": {
                  "user_id": {
                    "example": "any"
                  }
                }
              }
            }
          }
        }
      }
    },
    "/contact/getcontact_person/{user_id}": {
      "get": {
        "description": "",
        "parameters": [
          {
            "name": "user_id",
            "in": "path",
            "required": true,
            "schema": {
              "type": "string"
            }
          }
        ],
        "responses": {
          "200": {
            "description": "OK"
          },
          "401": {
            "description": "Unauthorized"
          },
          "404": {
            "description": "Not Found"
          },
          "500": {
            "description": "Internal Server Error"
          }
        }
      }
    },
    "/contact/getcontact_persons/{limit}/{offset}": {
      "get": {
        "description": "",
        "parameters": [
          {
            "name": "limit",
            "in": "path",
            "required": true,
            "schema": {
              "type": "string"
            }
          },
          {
            "name": "offset",
            "in": "path",
            "required": true,
            "schema": {
              "type": "string"
            }
          }
        ],
        "responses": {
          "200": {
            "description": "OK"
          },
          "401": {
            "description": "Unauthorized"
          },
          "404": {
            "description": "Not Found"
          },
          "500": {
            "description": "Internal Server Error"
          }
        }
      }
    },
    "/storage/savestorage": {
      "post": {
        "description": "",
        "parameters": [],
        "responses": {
          "200": {
            "description": "OK"
          },
          "401": {
            "description": "Unauthorized"
          },
          "404": {
            "description": "Not Found"
          },
          "500": {
            "description": "Internal Server Error"
          }
        },
        "requestBody": {
          "content": {
            "application/json": {
              "schema": {
                "type": "object",
                "properties": {
                  "storage_id": {
                    "example": "any"
                  },
                  "caption": {
                    "example": "any"
                  },
                  "comment": {
                    "example": "any"
                  },
                  "content_size": {
                    "example": "any"
                  },
                  "content_type": {
                    "example": "any"
                  },
                  "extention": {
                    "example": "any"
                  },
                  "height": {
                    "example": "any"
                  },
                  "keywords": {
                    "example": "any"
                  },
                  "name": {
                    "example": "any"
                  },
                  "owner_acc_id": {
                    "example": "any"
                  },
                  "owner_uuid": {
                    "example": "any"
                  },
                  "path": {
                    "example": "any"
                  },
                  "source": {
                    "example": "any"
                  },
                  "status": {
                    "example": "any"
                  },
                  "thumbnail_id": {
                    "example": "any"
                  },
                  "thumbnail_url": {
                    "example": "any"
                  },
                  "type": {
                    "example": "any"
                  },
                  "url": {
                    "example": "any"
                  },
                  "width": {
                    "example": "any"
                  },
                  "owner_id": {
                    "example": "any"
                  }
                }
              }
            }
          }
        }
      }
    },
    "/storage/updatestorage": {
      "put": {
        "description": "",
        "parameters": [],
        "responses": {
          "200": {
            "description": "OK"
          },
          "401": {
            "description": "Unauthorized"
          },
          "404": {
            "description": "Not Found"
          },
          "500": {
            "description": "Internal Server Error"
          }
        },
        "requestBody": {
          "content": {
            "application/json": {
              "schema": {
                "type": "object",
                "properties": {
                  "storage_id": {
                    "example": "any"
                  },
                  "caption": {
                    "example": "any"
                  },
                  "comment": {
                    "example": "any"
                  },
                  "content_size": {
                    "example": "any"
                  },
                  "content_type": {
                    "example": "any"
                  },
                  "extention": {
                    "example": "any"
                  },
                  "height": {
                    "example": "any"
                  },
                  "keywords": {
                    "example": "any"
                  },
                  "name": {
                    "example": "any"
                  },
                  "owner_acc_id": {
                    "example": "any"
                  },
                  "owner_uuid": {
                    "example": "any"
                  },
                  "path": {
                    "example": "any"
                  },
                  "source": {
                    "example": "any"
                  },
                  "status": {
                    "example": "any"
                  },
                  "thumbnail_id": {
                    "example": "any"
                  },
                  "thumbnail_url": {
                    "example": "any"
                  },
                  "type": {
                    "example": "any"
                  },
                  "url": {
                    "example": "any"
                  },
                  "width": {
                    "example": "any"
                  },
                  "owner_id": {
                    "example": "any"
                  }
                }
              }
            }
          }
        }
      }
    },
    "/storage/deletestorage": {
      "delete": {
        "description": "",
        "parameters": [],
        "responses": {
          "200": {
            "description": "OK"
          },
          "401": {
            "description": "Unauthorized"
          },
          "404": {
            "description": "Not Found"
          },
          "500": {
            "description": "Internal Server Error"
          }
        },
        "requestBody": {
          "content": {
            "application/json": {
              "schema": {
                "type": "object",
                "properties": {
                  "storage_id": {
                    "example": "any"
                  }
                }
              }
            }
          }
        }
      }
    },
    "/storage/getstorage/{storage_id}": {
      "get": {
        "description": "",
        "parameters": [
          {
            "name": "storage_id",
            "in": "path",
            "required": true,
            "schema": {
              "type": "string"
            }
          }
        ],
        "responses": {
          "200": {
            "description": "OK"
          },
          "401": {
            "description": "Unauthorized"
          },
          "404": {
            "description": "Not Found"
          },
          "500": {
            "description": "Internal Server Error"
          }
        }
      }
    },
    "/storage/getstorages/{limit}/{offset}": {
      "get": {
        "description": "",
        "parameters": [
          {
            "name": "limit",
            "in": "path",
            "required": true,
            "schema": {
              "type": "string"
            }
          },
          {
            "name": "offset",
            "in": "path",
            "required": true,
            "schema": {
              "type": "string"
            }
          }
        ],
        "responses": {
          "200": {
            "description": "OK"
          },
          "401": {
            "description": "Unauthorized"
          },
          "404": {
            "description": "Not Found"
          },
          "500": {
            "description": "Internal Server Error"
          }
        }
      }
    },
    "/work/registerworkinghours": {
      "post": {
        "description": "",
        "parameters": [],
        "responses": {
          "200": {
            "description": "OK"
          },
          "401": {
            "description": "Unauthorized"
          },
          "404": {
            "description": "Not Found"
          },
          "500": {
            "description": "Internal Server Error"
          }
        },
        "requestBody": {
          "content": {
            "application/json": {
              "schema": {
                "type": "object",
                "properties": {
                  "organization_id": {
                    "example": "any"
                  },
                  "valid_from": {
                    "example": "any"
                  },
                  "valid_through": {
                    "example": "any"
                  },
                  "opens": {
                    "example": "any"
                  },
                  "closed": {
                    "example": "any"
                  },
                  "break_start": {
                    "example": "any"
                  },
                  "break_end": {
                    "example": "any"
                  },
                  "status": {
                    "example": "any"
                  },
                  "day_of_week": {
                    "example": "any"
                  },
                  "owner_id": {
                    "example": "any"
                  }
                }
              }
            }
          }
        }
      }
    },
    "/work/updateworkinghours": {
      "put": {
        "description": "",
        "parameters": [],
        "responses": {
          "200": {
            "description": "OK"
          },
          "401": {
            "description": "Unauthorized"
          },
          "404": {
            "description": "Not Found"
          },
          "500": {
            "description": "Internal Server Error"
          }
        },
        "requestBody": {
          "content": {
            "application/json": {
              "schema": {
                "type": "object",
                "properties": {
                  "working_hours_id": {
                    "example": "any"
                  },
                  "organization_id": {
                    "example": "any"
                  },
                  "valid_from": {
                    "example": "any"
                  },
                  "valid_through": {
                    "example": "any"
                  },
                  "opens": {
                    "example": "any"
                  },
                  "closed": {
                    "example": "any"
                  },
                  "break_start": {
                    "example": "any"
                  },
                  "break_end": {
                    "example": "any"
                  },
                  "status": {
                    "example": "any"
                  },
                  "day_of_week": {
                    "example": "any"
                  },
                  "owner_id": {
                    "example": "any"
                  }
                }
              }
            }
          }
        }
      }
    },
    "/work/deleteworkinghours": {
      "delete": {
        "description": "",
        "parameters": [],
        "responses": {
          "200": {
            "description": "OK"
          },
          "401": {
            "description": "Unauthorized"
          },
          "404": {
            "description": "Not Found"
          },
          "500": {
            "description": "Internal Server Error"
          }
        },
        "requestBody": {
          "content": {
            "application/json": {
              "schema": {
                "type": "object",
                "properties": {
                  "working_hours_id": {
                    "example": "any"
                  }
                }
              }
            }
          }
        }
      }
    },
    "/work/getworkinghours/{working_hours_id}": {
      "get": {
        "description": "",
        "parameters": [
          {
            "name": "working_hours_id",
            "in": "path",
            "required": true,
            "schema": {
              "type": "string"
            }
          }
        ],
        "responses": {
          "200": {
            "description": "OK"
          },
          "401": {
            "description": "Unauthorized"
          },
          "404": {
            "description": "Not Found"
          },
          "500": {
            "description": "Internal Server Error"
          }
        }
      }
    },
    "/work/getworkinghourss/{limit}/{offset}": {
      "get": {
        "description": "",
        "parameters": [
          {
            "name": "limit",
            "in": "path",
            "required": true,
            "schema": {
              "type": "string"
            }
          },
          {
            "name": "offset",
            "in": "path",
            "required": true,
            "schema": {
              "type": "string"
            }
          }
        ],
        "responses": {
          "200": {
            "description": "OK"
          },
          "401": {
            "description": "Unauthorized"
          },
          "404": {
            "description": "Not Found"
          },
          "500": {
            "description": "Internal Server Error"
          }
        }
      }
    },
    "/acctax/authority/saveacctaxauthority": {
      "post": {
        "description": "",
        "parameters": [],
        "responses": {
          "200": {
            "description": "OK"
          },
          "401": {
            "description": "Unauthorized"
          },
          "404": {
            "description": "Not Found"
          },
          "500": {
            "description": "Internal Server Error"
          }
        },
        "requestBody": {
          "content": {
            "application/json": {
              "schema": {
                "type": "object",
                "properties": {
                  "authority_id": {
                    "example": "any"
                  },
                  "name": {
                    "example": "any"
                  },
                  "registarion_number": {
                    "example": "any"
                  },
                  "registration_label": {
                    "example": "any"
                  },
                  "description": {
                    "example": "any"
                  },
                  "owner_id": {
                    "example": "any"
                  }
                }
              }
            }
          }
        }
      }
    },
    "/acctax/authority/updateacctaxauthority": {
      "put": {
        "description": "",
        "parameters": [],
        "responses": {
          "200": {
            "description": "OK"
          },
          "401": {
            "description": "Unauthorized"
          },
          "404": {
            "description": "Not Found"
          },
          "500": {
            "description": "Internal Server Error"
          }
        },
        "requestBody": {
          "content": {
            "application/json": {
              "schema": {
                "type": "object",
                "properties": {
                  "authority_id": {
                    "example": "any"
                  },
                  "name": {
                    "example": "any"
                  },
                  "registarion_number": {
                    "example": "any"
                  },
                  "registration_label": {
                    "example": "any"
                  },
                  "description": {
                    "example": "any"
                  },
                  "owner_id": {
                    "example": "any"
                  }
                }
              }
            }
          }
        }
      }
    },
    "/acctax/authority/deleteacctaxauthority": {
      "delete": {
        "description": "",
        "parameters": [],
        "responses": {
          "200": {
            "description": "OK"
          },
          "401": {
            "description": "Unauthorized"
          },
          "404": {
            "description": "Not Found"
          },
          "500": {
            "description": "Internal Server Error"
          }
        },
        "requestBody": {
          "content": {
            "application/json": {
              "schema": {
                "type": "object",
                "properties": {
                  "authority_id": {
                    "example": "any"
                  }
                }
              }
            }
          }
        }
      }
    },
    "/acctax/authority/getacctaxauthority/{authority_id}": {
      "get": {
        "description": "",
        "parameters": [
          {
            "name": "authority_id",
            "in": "path",
            "required": true,
            "schema": {
              "type": "string"
            }
          }
        ],
        "responses": {
          "200": {
            "description": "OK"
          },
          "401": {
            "description": "Unauthorized"
          },
          "404": {
            "description": "Not Found"
          },
          "500": {
            "description": "Internal Server Error"
          }
        }
      }
    },
    "/acctax/authority/getacctaxauthorities/{limit}/{offset}": {
      "get": {
        "description": "",
        "parameters": [
          {
            "name": "limit",
            "in": "path",
            "required": true,
            "schema": {
              "type": "string"
            }
          },
          {
            "name": "offset",
            "in": "path",
            "required": true,
            "schema": {
              "type": "string"
            }
          }
        ],
        "responses": {
          "200": {
            "description": "OK"
          },
          "401": {
            "description": "Unauthorized"
          },
          "404": {
            "description": "Not Found"
          },
          "500": {
            "description": "Internal Server Error"
          }
        }
      }
    },
    "/acctax/saveacctax": {
      "post": {
        "description": "",
        "parameters": [],
        "responses": {
          "200": {
            "description": "OK"
          },
          "401": {
            "description": "Unauthorized"
          },
          "404": {
            "description": "Not Found"
          },
          "500": {
            "description": "Internal Server Error"
          }
        },
        "requestBody": {
          "content": {
            "application/json": {
              "schema": {
                "type": "object",
                "properties": {
                  "is_editable": {
                    "example": "any"
                  },
                  "is_value_added": {
                    "example": "any"
                  },
                  "name": {
                    "example": "any"
                  },
                  "percentage": {
                    "example": "any"
                  },
                  "factor": {
                    "example": "any"
                  },
                  "country_id": {
                    "example": "any"
                  },
                  "specific_type": {
                    "example": "any"
                  },
                  "tax_authority_id": {
                    "example": "any"
                  },
                  "type": {
                    "example": "any"
                  },
                  "owner_id": {
                    "example": "any"
                  }
                }
              }
            }
          }
        }
      }
    },
    "/acctax/updateacctax": {
      "put": {
        "description": "",
        "parameters": [],
        "responses": {
          "200": {
            "description": "OK"
          },
          "401": {
            "description": "Unauthorized"
          },
          "404": {
            "description": "Not Found"
          },
          "500": {
            "description": "Internal Server Error"
          }
        },
        "requestBody": {
          "content": {
            "application/json": {
              "schema": {
                "type": "object",
                "properties": {
                  "acc_tax_id": {
                    "example": "any"
                  },
                  "is_editable": {
                    "example": "any"
                  },
                  "is_value_added": {
                    "example": "any"
                  },
                  "name": {
                    "example": "any"
                  },
                  "percentage": {
                    "example": "any"
                  },
                  "factor": {
                    "example": "any"
                  },
                  "country_id": {
                    "example": "any"
                  },
                  "specific_type": {
                    "example": "any"
                  },
                  "tax_authority_id": {
                    "example": "any"
                  },
                  "type": {
                    "example": "any"
                  },
                  "owner_id": {
                    "example": "any"
                  }
                }
              }
            }
          }
        }
      }
    },
    "/acctax/deleteacc_tax": {
      "delete": {
        "description": "",
        "parameters": [],
        "responses": {
          "200": {
            "description": "OK"
          },
          "401": {
            "description": "Unauthorized"
          },
          "404": {
            "description": "Not Found"
          },
          "500": {
            "description": "Internal Server Error"
          }
        },
        "requestBody": {
          "content": {
            "application/json": {
              "schema": {
                "type": "object",
                "properties": {
                  "acc_tax_id": {
                    "example": "any"
                  }
                }
              }
            }
          }
        }
      }
    },
    "/acctax/getacctax/{acc_tax_id}": {
      "get": {
        "description": "",
        "parameters": [
          {
            "name": "acc_tax_id",
            "in": "path",
            "required": true,
            "schema": {
              "type": "string"
            }
          }
        ],
        "responses": {
          "200": {
            "description": "OK"
          },
          "401": {
            "description": "Unauthorized"
          },
          "404": {
            "description": "Not Found"
          },
          "500": {
            "description": "Internal Server Error"
          }
        }
      }
    },
    "/acctax/getacctaxes/{limit}/{offset}": {
      "get": {
        "description": "",
        "parameters": [
          {
            "name": "limit",
            "in": "path",
            "required": true,
            "schema": {
              "type": "string"
            }
          },
          {
            "name": "offset",
            "in": "path",
            "required": true,
            "schema": {
              "type": "string"
            }
          }
        ],
        "responses": {
          "200": {
            "description": "OK"
          },
          "401": {
            "description": "Unauthorized"
          },
          "404": {
            "description": "Not Found"
          },
          "500": {
            "description": "Internal Server Error"
          }
        }
      }
    },
    "/acctax/group/saveacctaxgroup": {
      "post": {
        "description": "",
        "parameters": [],
        "responses": {
          "200": {
            "description": "OK"
          },
          "401": {
            "description": "Unauthorized"
          },
          "404": {
            "description": "Not Found"
          },
          "500": {
            "description": "Internal Server Error"
          }
        },
        "requestBody": {
          "content": {
            "application/json": {
              "schema": {
                "type": "object",
                "properties": {
                  "name": {
                    "example": "any"
                  },
                  "percentage": {
                    "example": "any"
                  },
                  "owner_id": {
                    "example": "any"
                  }
                }
              }
            }
          }
        }
      }
    },
    "/acctax/group/updateacctaxgroup": {
      "put": {
        "description": "",
        "parameters": [],
        "responses": {
          "200": {
            "description": "OK"
          },
          "401": {
            "description": "Unauthorized"
          },
          "404": {
            "description": "Not Found"
          },
          "500": {
            "description": "Internal Server Error"
          }
        },
        "requestBody": {
          "content": {
            "application/json": {
              "schema": {
                "type": "object",
                "properties": {
                  "group_id": {
                    "example": "any"
                  },
                  "name": {
                    "example": "any"
                  },
                  "percentage": {
                    "example": "any"
                  },
                  "owner_id": {
                    "example": "any"
                  }
                }
              }
            }
          }
        }
      }
    },
    "/acctax/group/deleteacctaxgroup": {
      "delete": {
        "description": "",
        "parameters": [],
        "responses": {
          "200": {
            "description": "OK"
          },
          "401": {
            "description": "Unauthorized"
          },
          "404": {
            "description": "Not Found"
          },
          "500": {
            "description": "Internal Server Error"
          }
        },
        "requestBody": {
          "content": {
            "application/json": {
              "schema": {
                "type": "object",
                "properties": {
                  "acc_tax_group_id": {
                    "example": "any"
                  }
                }
              }
            }
          }
        }
      }
    },
    "/acctax/group/getacctaxgroup/{group_id}": {
      "get": {
        "description": "",
        "parameters": [
          {
            "name": "group_id",
            "in": "path",
            "required": true,
            "schema": {
              "type": "string"
            }
          }
        ],
        "responses": {
          "200": {
            "description": "OK"
          },
          "401": {
            "description": "Unauthorized"
          },
          "404": {
            "description": "Not Found"
          },
          "500": {
            "description": "Internal Server Error"
          }
        }
      }
    },
    "/acctax/group/getacctaxgroups/{limit}/{offset}": {
      "get": {
        "description": "",
        "parameters": [
          {
            "name": "limit",
            "in": "path",
            "required": true,
            "schema": {
              "type": "string"
            }
          },
          {
            "name": "offset",
            "in": "path",
            "required": true,
            "schema": {
              "type": "string"
            }
          }
        ],
        "responses": {
          "200": {
            "description": "OK"
          },
          "401": {
            "description": "Unauthorized"
          },
          "404": {
            "description": "Not Found"
          },
          "500": {
            "description": "Internal Server Error"
          }
        }
      }
    },
    "/acctax/group/map/saveacctaxgroupmap": {
      "post": {
        "description": "",
        "parameters": [],
        "responses": {
          "200": {
            "description": "OK"
          },
          "401": {
            "description": "Unauthorized"
          },
          "404": {
            "description": "Not Found"
          },
          "500": {
            "description": "Internal Server Error"
          }
        },
        "requestBody": {
          "content": {
            "application/json": {
              "schema": {
                "type": "object",
                "properties": {
                  "tax_id": {
                    "example": "any"
                  },
                  "tax_group_id": {
                    "example": "any"
                  },
                  "owner_id": {
                    "example": "any"
                  }
                }
              }
            }
          }
        }
      }
    },
    "/acctax/group/map/updateacctaxgroupmap": {
      "put": {
        "description": "",
        "parameters": [],
        "responses": {
          "200": {
            "description": "OK"
          },
          "401": {
            "description": "Unauthorized"
          },
          "404": {
            "description": "Not Found"
          },
          "500": {
            "description": "Internal Server Error"
          }
        },
        "requestBody": {
          "content": {
            "application/json": {
              "schema": {
                "type": "object",
                "properties": {
                  "tax_id": {
                    "example": "any"
                  },
                  "tax_group_id": {
                    "example": "any"
                  },
                  "owner_id": {
                    "example": "any"
                  }
                }
              }
            }
          }
        }
      }
    },
    "/acctax/group/map/deleteacctaxgroupmap": {
      "delete": {
        "description": "",
        "parameters": [],
        "responses": {
          "200": {
            "description": "OK"
          },
          "401": {
            "description": "Unauthorized"
          },
          "404": {
            "description": "Not Found"
          },
          "500": {
            "description": "Internal Server Error"
          }
        }
      }
    },
    "/acctax/group/map/getacctaxgroupmap/{tax_id}/{tax_group_id}": {
      "get": {
        "description": "",
        "parameters": [
          {
            "name": "tax_id",
            "in": "path",
            "required": true,
            "schema": {
              "type": "string"
            }
          },
          {
            "name": "tax_group_id",
            "in": "path",
            "required": true,
            "schema": {
              "type": "string"
            }
          }
        ],
        "responses": {
          "200": {
            "description": "OK"
          },
          "401": {
            "description": "Unauthorized"
          },
          "404": {
            "description": "Not Found"
          },
          "500": {
            "description": "Internal Server Error"
          }
        }
      }
    },
    "/acctax/group/map/getacctaxgroupmaps/{limit}/{offset}": {
      "get": {
        "description": "",
        "parameters": [
          {
            "name": "limit",
            "in": "path",
            "required": true,
            "schema": {
              "type": "string"
            }
          },
          {
            "name": "offset",
            "in": "path",
            "required": true,
            "schema": {
              "type": "string"
            }
          }
        ],
        "responses": {
          "200": {
            "description": "OK"
          },
          "401": {
            "description": "Unauthorized"
          },
          "404": {
            "description": "Not Found"
          },
          "500": {
            "description": "Internal Server Error"
          }
        }
      }
    }
  },
  "components": {
    "securitySchemes": {
      "bearerAuth": {
        "type": "http",
        "scheme": "bearer",
        "bearerFormat": "JWT",
        "name": "Authorization",
        "in": "header"
      }
    }
  },
  "security": [
    {
      "bearerAuth": []
    }
  ]
}